asgiref==3.5.2
beautifulsoup4==4.11.1
black==22.3.0
click==8.1.3
Django==4.0.5
djhtml==1.5.0
flake8==4.0.1
markdownify==0.11.2
mccabe==0.6.1
mypy-extensions==0.4.3
pathspec==0.9.0
platformdirs==2.5.2
pycodestyle==2.8.0
pyflakes==2.4.0
six==1.16.0
soupsieve==2.3.2.post1
sqlparse==0.4.2
tomli==2.0.1
